-------------------------------------------------------------------------------
Test set: org.cloudbus.cloudsim.util.WorkloadFileReaderTest
-------------------------------------------------------------------------------
Tests run: 1, Failures: 0, Errors: 0, Skipped: 0, Time elapsed: 3.272 sec
