-------------------------------------------------------------------------------
Test set: org.cloudbus.cloudsim.HostDynamicWorkloadTest
-------------------------------------------------------------------------------
Tests run: 6, Failures: 0, Errors: 0, Skipped: 0, Time elapsed: 0.063 sec
