-------------------------------------------------------------------------------
Test set: org.cloudbus.cloudsim.power.models.PowerModelCubicTest
-------------------------------------------------------------------------------
Tests run: 5, Failures: 0, Errors: 0, Skipped: 1, Time elapsed: 0.016 sec
